1 10 20
100 200 125
201 210 89
900 1000 174
30 15 112
1001 1001 143
2000 2500 209
950 951 29
3500 2500 217
5 15 20
678 789 171
89999 90006 165
999999 999999 259
1 1 1
1 100 119
100 1 119
150 149 24
876540 876640 295
5400 5500 192
4341 4321 171
45458 45928 239
8734 8723 141
4582 4489 184
3 3 8
18 17 21
2500 2499 178
89 90 31
70 69 15
421 420 41
45 50 105
2000 2020 144
1999 2020 144
1995 1999 51
1969 1965 144
4590 4540 184
1800 1865 162
300 400 144
23456 23500 251
111 111 70
456 456 36
987 978 143
42 1 112
5 10 20
10 25 24
25 50 112
50 100 119
790 768 153
89564 89603 165
99990 999999 525
60 60 20
234 235 128
69 69 15
345 349 126
345872 345965 441
234000 234075 275
240 260 123
9810 9820 167
9999 10010 180
590 560 119
24 24 11
777 777 34
98243 98234 191
1898 1900 69
10000 10085 211
9090 9050 185
5649 5650 86
7890 7880 177
8200 8209 159
5655 5666 130
101010 101050 235
90909 90999 271
6890 6880 182
3490 3450 181
264519 264500 270
333 333 113
890243 890223 264
354 345 126
2345 2346 152
456789 456769 157
1369 1349 159
150000 149945 225
230957 230950 200
16790 16705 266
789000 789069 238
34444 34444 81
980 989 143
546890 546863 240
56 56 20
100001 100001 90
987654 987604 277
3457 3460 150
289900 289975 252
1679 1670 136
817590 817580 163
1 3 8
3409 3410 137
1304 1204 177
890 899 117
76043 76030 201
190000 190050 223
7340 7410 208
7010 6090 262
5690 5620 205
333 332 113
3809 3900 176
1 999999 525
